waves.vcd
$version Generated by VerilatedVcd $end
$timescale 1ps $end
 $scope module tb_core $end
  $var wire 1 /! clk $end
  $var wire 1 0! rst_n $end
  $var wire 32 / i [31:0] $end
  $var wire 32 0 y [31:0] $end
  $scope module core $end
   $var wire 1 /! clk $end
   $var wire 1 0! rst_n $end
   $var wire 32 1! pc_if [31:0] $end
   $var wire 32 1 instr_if [31:0] $end
   $var wire 1 2! imem_en $end
   $var wire 1 R stall $end
   $var wire 32 S pc_id [31:0] $end
   $var wire 32 T instr_id [31:0] $end
   $var wire 7 U opcode_id [6:0] $end
   $var wire 5 V rd_id [4:0] $end
   $var wire 3 W funct3_id [2:0] $end
   $var wire 7 X funct7_id [6:0] $end
   $var wire 5 Y rs1_id [4:0] $end
   $var wire 5 Z rs2_id [4:0] $end
   $var wire 32 [ imm_id [31:0] $end
   $var wire 1 \ mem_w_id $end
   $var wire 1 ] rs2_sel_id $end
   $var wire 1 ^ rs1_sel_id $end
   $var wire 1 _ reg_write_id $end
   $var wire 3 ` wb_sel_id [2:0] $end
   $var wire 32 3! rs1_data_id [31:0] $end
   $var wire 32 4! rs2_data_id [31:0] $end
   $var wire 7 " opcode_ex [6:0] $end
   $var wire 5 a rd_ex [4:0] $end
   $var wire 3 # funct3_ex [2:0] $end
   $var wire 7 $ funct7_ex [6:0] $end
   $var wire 32 b imm_ex [31:0] $end
   $var wire 32 c pc_ex [31:0] $end
   $var wire 1 d mem_w_ex $end
   $var wire 1 e rs2_sel_ex $end
   $var wire 1 % rs1_sel_ex $end
   $var wire 1 f reg_write_ex $end
   $var wire 3 g wb_sel_ex [2:0] $end
   $var wire 4 h alu_op_ex [3:0] $end
   $var wire 32 i rs1_data_ex [31:0] $end
   $var wire 32 j rs2_data_ex [31:0] $end
   $var wire 32 k alu_result_ex [31:0] $end
   $var wire 32 i alu_operand_a_ex [31:0] $end
   $var wire 32 l alu_operand_b_ex [31:0] $end
   $var wire 32 m pc_wb [31:0] $end
   $var wire 5 n rd_wb [4:0] $end
   $var wire 1 & mem_w_wb $end
   $var wire 1 o reg_write_wb $end
   $var wire 3 p wb_sel_wb [2:0] $end
   $var wire 32 q alu_result_wb [31:0] $end
   $var wire 32 r pc_mem [31:0] $end
   $var wire 32 s rs2_data_mem [31:0] $end
   $var wire 5 t rd_mem [4:0] $end
   $var wire 1 u mem_w_mem $end
   $var wire 3 v wb_sel_mem [2:0] $end
   $var wire 1 w reg_write_mem $end
   $var wire 32 x alu_result_mem [31:0] $end
   $var wire 7 ' opcode_mem [6:0] $end
   $var wire 3 ( funct3_mem [2:0] $end
   $var wire 32 5! r_data_mem [31:0] $end
   $var wire 32 8! w_data_mem [31:0] $end
   $var wire 32 y bit_mask_mem [31:0] $end
   $var wire 1 z is_unsigned $end
   $var wire 32 { r_data_wb [31:0] $end
   $var wire 32 | return_val [31:0] $end
   $scope module alu $end
    $var wire 4 h operator [3:0] $end
    $var wire 32 i operand_a [31:0] $end
    $var wire 32 l operand_b [31:0] $end
    $var wire 32 k result [31:0] $end
    $var wire 32 } add_output [31:0] $end
    $var wire 32 ~ sub_output [31:0] $end
    $var wire 32 !! xor_output [31:0] $end
    $var wire 32 "! or_output [31:0] $end
    $var wire 32 #! and_output [31:0] $end
    $var wire 32 $! sra_output [31:0] $end
    $var wire 32 %! sll_output [31:0] $end
    $var wire 32 &! srl_output [31:0] $end
    $var wire 32 '! slt_output [31:0] $end
    $var wire 32 (! sltu_output [31:0] $end
   $upscope $end
   $scope module alu_controller $end
    $var wire 7 " opcode [6:0] $end
    $var wire 3 # funct3 [2:0] $end
    $var wire 7 $ funct7 [6:0] $end
    $var wire 4 h alu_op [3:0] $end
   $upscope $end
   $scope module control_unit $end
    $var wire 32 T instr [31:0] $end
    $var wire 1 \ mem_w $end
    $var wire 1 ] rs2_sel $end
    $var wire 1 ^ rs1_sel $end
    $var wire 1 _ reg_write $end
    $var wire 3 ` wb_sel [2:0] $end
    $var wire 7 U opcode [6:0] $end
   $upscope $end
   $scope module decoder $end
    $var wire 32 T instr [31:0] $end
    $var wire 7 U opcode [6:0] $end
    $var wire 5 V rd [4:0] $end
    $var wire 3 W funct3 [2:0] $end
    $var wire 7 X funct7 [6:0] $end
    $var wire 5 Y rs1 [4:0] $end
    $var wire 5 Z rs2 [4:0] $end
    $var wire 32 [ imm [31:0] $end
    $var wire 32 )! imm_I [31:0] $end
    $var wire 32 *! imm_S [31:0] $end
    $var wire 32 +! imm_B [31:0] $end
    $var wire 32 ,! imm_U [31:0] $end
    $var wire 32 -! imm_J [31:0] $end
   $upscope $end
   $scope module dmem $end
    $var wire 32 9! DEPTH [31:0] $end
    $var wire 1 /! clk $end
    $var wire 1 u write_en $end
    $var wire 32 x addr [31:0] $end
    $var wire 32 s w_data [31:0] $end
    $var wire 32 y bit_mask [31:0] $end
    $var wire 32 5! r_data [31:0] $end
    $var wire 32 6! toggle [31:0] $end
    $var wire 10 .! debug_mem_addr [9:0] $end
   $upscope $end
   $scope module ex_mem_reg $end
    $var wire 1 /! clk $end
    $var wire 1 0! rst_n $end
    $var wire 1 R stall $end
    $var wire 7 " opcode_ex [6:0] $end
    $var wire 3 # funct3_ex [2:0] $end
    $var wire 5 a rd_ex [4:0] $end
    $var wire 32 c pc_ex [31:0] $end
    $var wire 1 d mem_w_ex $end
    $var wire 1 f reg_write_ex $end
    $var wire 3 g wb_sel_ex [2:0] $end
    $var wire 32 k alu_result_ex [31:0] $end
    $var wire 32 j rs2_data_ex [31:0] $end
    $var wire 32 s rs2_data_mem [31:0] $end
    $var wire 5 t rd_mem [4:0] $end
    $var wire 32 r pc_mem [31:0] $end
    $var wire 7 ' opcode_mem [6:0] $end
    $var wire 3 ( funct3_mem [2:0] $end
    $var wire 1 u mem_w_mem $end
    $var wire 1 w reg_write_mem $end
    $var wire 3 v wb_sel_mem [2:0] $end
    $var wire 32 x alu_result_mem [31:0] $end
   $upscope $end
   $scope module hazard_unit $end
    $var wire 1 /! clk $end
    $var wire 1 0! rst_n $end
    $var wire 1 _ reg_write $end
    $var wire 5 V rd [4:0] $end
    $var wire 5 Y src1 [4:0] $end
    $var wire 5 Z src2 [4:0] $end
    $var wire 1 R stall $end
    $var wire 5 ) rd_ex [4:0] $end
    $var wire 5 * rd_mem [4:0] $end
    $var wire 1 + rw_ex $end
    $var wire 1 , rw_mem $end
    $var wire 5 - rd_wb [4:0] $end
    $var wire 1 . rw_wb $end
   $upscope $end
   $scope module id_ex_reg $end
    $var wire 1 /! clk $end
    $var wire 1 0! rst_n $end
    $var wire 1 R stall $end
    $var wire 32 S pc_id [31:0] $end
    $var wire 7 U opcode_id [6:0] $end
    $var wire 5 V rd_id [4:0] $end
    $var wire 3 W funct3_id [2:0] $end
    $var wire 7 X funct7_id [6:0] $end
    $var wire 32 3! rs1_data_id [31:0] $end
    $var wire 32 4! rs2_data_id [31:0] $end
    $var wire 32 [ imm_id [31:0] $end
    $var wire 1 \ mem_w_id $end
    $var wire 1 ] rs2_sel_id $end
    $var wire 1 ^ rs1_sel_id $end
    $var wire 1 _ reg_write_id $end
    $var wire 3 ` wb_sel_id [2:0] $end
    $var wire 7 " opcode_ex [6:0] $end
    $var wire 5 a rd_ex [4:0] $end
    $var wire 3 # funct3_ex [2:0] $end
    $var wire 7 $ funct7_ex [6:0] $end
    $var wire 32 i rs1_data_ex [31:0] $end
    $var wire 32 j rs2_data_ex [31:0] $end
    $var wire 32 b imm_ex [31:0] $end
    $var wire 32 c pc_ex [31:0] $end
    $var wire 1 d mem_w_ex $end
    $var wire 1 e rs2_sel_ex $end
    $var wire 1 % rs1_sel_ex $end
    $var wire 1 f reg_write_ex $end
    $var wire 3 g wb_sel_ex [2:0] $end
   $upscope $end
   $scope module if_id_reg $end
    $var wire 1 /! clk $end
    $var wire 1 0! rst_n $end
    $var wire 1 R stall $end
    $var wire 32 1! pc_if [31:0] $end
    $var wire 32 1 instr_if [31:0] $end
    $var wire 32 S pc_id [31:0] $end
    $var wire 32 T instr_id [31:0] $end
   $upscope $end
   $scope module imem $end
    $var wire 32 9! DEPTH [31:0] $end
    $var wire 1 /! clk $end
    $var wire 1 2! en $end
    $var wire 32 1! addr [31:0] $end
    $var wire 1 R stall $end
    $var wire 32 1 instr [31:0] $end
   $upscope $end
   $scope module mem_controller $end
    $var wire 7 ' opcode [6:0] $end
    $var wire 3 ( funct3 [2:0] $end
    $var wire 32 y bit_mask [31:0] $end
    $var wire 1 z is_unsigned $end
   $upscope $end
   $scope module mem_wb_reg $end
    $var wire 1 /! clk $end
    $var wire 1 0! rst_n $end
    $var wire 1 R stall $end
    $var wire 5 t rd_mem [4:0] $end
    $var wire 32 r pc_mem [31:0] $end
    $var wire 1 u mem_w_mem $end
    $var wire 1 w reg_write_mem $end
    $var wire 3 v wb_sel_mem [2:0] $end
    $var wire 32 x alu_result_mem [31:0] $end
    $var wire 32 5! r_data_mem [31:0] $end
    $var wire 5 n rd_wb [4:0] $end
    $var wire 32 m pc_wb [31:0] $end
    $var wire 1 & mem_w_wb $end
    $var wire 1 o reg_write_wb $end
    $var wire 3 p wb_sel_wb [2:0] $end
    $var wire 32 { r_data_wb [31:0] $end
    $var wire 32 q alu_result_wb [31:0] $end
   $upscope $end
   $scope module pc $end
    $var wire 1 /! clk $end
    $var wire 1 0! rst_n $end
    $var wire 1 2! imem_en $end
    $var wire 1 R stall $end
    $var wire 32 7! pc_d [31:0] $end
    $var wire 32 1! pc_q [31:0] $end
   $upscope $end
   $scope module regfile $end
    $var wire 1 /! clk $end
    $var wire 5 n w_addr [4:0] $end
    $var wire 32 | w_data [31:0] $end
    $var wire 1 o w_en $end
    $var wire 5 Y r_addr1 [4:0] $end
    $var wire 32 3! r_data1 [31:0] $end
    $var wire 5 Z r_addr2 [4:0] $end
    $var wire 32 4! r_data2 [31:0] $end
    $var wire 32 2 regs[31] [31:0] $end
    $var wire 32 3 regs[30] [31:0] $end
    $var wire 32 4 regs[29] [31:0] $end
    $var wire 32 5 regs[28] [31:0] $end
    $var wire 32 6 regs[27] [31:0] $end
    $var wire 32 7 regs[26] [31:0] $end
    $var wire 32 8 regs[25] [31:0] $end
    $var wire 32 9 regs[24] [31:0] $end
    $var wire 32 : regs[23] [31:0] $end
    $var wire 32 ; regs[22] [31:0] $end
    $var wire 32 < regs[21] [31:0] $end
    $var wire 32 = regs[20] [31:0] $end
    $var wire 32 > regs[19] [31:0] $end
    $var wire 32 ? regs[18] [31:0] $end
    $var wire 32 @ regs[17] [31:0] $end
    $var wire 32 A regs[16] [31:0] $end
    $var wire 32 B regs[15] [31:0] $end
    $var wire 32 C regs[14] [31:0] $end
    $var wire 32 D regs[13] [31:0] $end
    $var wire 32 E regs[12] [31:0] $end
    $var wire 32 F regs[11] [31:0] $end
    $var wire 32 G regs[10] [31:0] $end
    $var wire 32 H regs[9] [31:0] $end
    $var wire 32 I regs[8] [31:0] $end
    $var wire 32 J regs[7] [31:0] $end
    $var wire 32 K regs[6] [31:0] $end
    $var wire 32 L regs[5] [31:0] $end
    $var wire 32 M regs[4] [31:0] $end
    $var wire 32 N regs[3] [31:0] $end
    $var wire 32 O regs[2] [31:0] $end
    $var wire 32 P regs[1] [31:0] $end
    $var wire 32 Q regs[0] [31:0] $end
   $upscope $end
  $upscope $end
 $upscope $end
$enddefinitions $end


#0
b0000000 "
b000 #
b0000000 $
0%
0&
b0000000 '
b000 (
b00000 )
b00000 *
0+
0,
b00000 -
0.
b00000000000000000000000000000000 /
b00000000000000000000000000000000 0
b00000000000000000000000000000000 1
b00000000000000000000000000000000 2
b00000000000000000000000000000000 3
b00000000000000000000000000000000 4
b00000000000000000000000000000000 5
b00000000000000000000000000000000 6
b00000000000000000000000000000000 7
b00000000000000000000000000000000 8
b00000000000000000000000000000000 9
b00000000000000000000000000000000 :
b00000000000000000000000000000000 ;
b00000000000000000000000000000000 <
b00000000000000000000000000000000 =
b00000000000000000000000000000000 >
b00000000000000000000000000000000 ?
b00000000000000000000000000000000 @
b00000000000000000000000000000000 A
b00000000000000000000000000000000 B
b00000000000000000000000000000000 C
b00000000000000000000000000000000 D
b00000000000000000000000000000000 E
b00000000000000000000000000000000 F
b00000000000000000000000000000000 G
b00000000000000000000000000000000 H
b00000000000000000000000000000000 I
b00000000000000000000000000000000 J
b00000000000000000000000000000000 K
b00000000000000000000000000000000 L
b00000000000000000000000000000000 M
b00000000000000000000000000000000 N
b00000000000000000000000000000000 O
b00000000000000000000000000000000 P
b00000000000000000000000000000000 Q
0R
b00000000000000000000000000000000 S
b00000000000000000000000000000000 T
b0000000 U
b00000 V
b000 W
b0000000 X
b00000 Y
b00000 Z
b00000000000000000000000000000000 [
0\
0]
0^
0_
b000 `
b00000 a
b00000000000000000000000000000000 b
b00000000000000000000000000000000 c
0d
0e
0f
b000 g
b0000 h
b00000000000000000000000000000000 i
b00000000000000000000000000000000 j
b00000000000000000000000000000000 k
b00000000000000000000000000000000 l
b00000000000000000000000000000000 m
b00000 n
0o
b000 p
b00000000000000000000000000000000 q
b00000000000000000000000000000000 r
b00000000000000000000000000000000 s
b00000 t
0u
b000 v
0w
b00000000000000000000000000000000 x
b00000000000000000000000011111111 y
0z
b00000000000000000000000000000000 {
b00000000000000000000000000000000 |
b00000000000000000000000000000000 }
b00000000000000000000000000000000 ~
b00000000000000000000000000000000 !!
b00000000000000000000000000000000 "!
b00000000000000000000000000000000 #!
b00000000000000000000000000000000 $!
b00000000000000000000000000000000 %!
b00000000000000000000000000000000 &!
b00000000000000000000000000000000 '!
b00000000000000000000000000000000 (!
b00000000000000000000000000000000 )!
b00000000000000000000000000000000 *!
b00000000000000000000000000000000 +!
b00000000000000000000000000000000 ,!
b00000000000000000000000000000000 -!
b0000000000 .!
0/!
00!
b00000000000000000000000000000000 1!
02!
b00000000000000000000000000000000 3!
b00000000000000000000000000000000 4!
b00000000000000000000000000000000 5!
b00000000000000000000000000000000 6!
b00000000000000000000000000000100 7!
b00000000000000000000000000000000 8!
b00000000000000000000010000000000 9!
#5
b00000000000000000000000000000001 /
1/!
12!
#10
0/!
10!
#15
b00000000000000000000000000000010 /
b00000000000101011000010100010011 1
1/!
b00000000000000000000000000000100 1!
b00000000000000000000000000001000 7!
#20
0/!
#25
b00000000000000000000000000000011 /
b00000000000101010000011000010011 1
b00000000000000000000000000000100 S
b00000000000101011000010100010011 T
b0010011 U
b01010 V
b01011 Y
b00001 Z
b00000000000000000000000000000001 [
1]
1_
b010 `
b00000000000000000000000000000001 )!
b00000000000000000000000000001010 *!
b00000000000000000000000000001010 +!
b00000000000101011000000000000000 ,!
b00000000000001011000100000000000 -!
1/!
b00000000000000000000000000001000 1!
b00000000000000000000000000001100 7!
#30
0/!
#35
b0010011 "
b01010 )
1+
b00000000000000000000000000000100 /
b00000000000101111000011100010011 1
1R
b00000000000000000000000000001000 S
b00000000000101010000011000010011 T
b01100 V
b01010 Y
b01010 a
b00000000000000000000000000000001 b
b00000000000000000000000000000100 c
1e
1f
b010 g
b00000000000000000000000000000001 k
b00000000000000000000000000000001 l
b00000000000000000000000000000001 }
b11111111111111111111111111111111 ~
b00000000000000000000000000000001 !!
b00000000000000000000000000000001 "!
b00000000000000000000000000000001 '!
b00000000000000000000000000000001 (!
b00000000000000000000000000001100 *!
b00000000000000000000000000001100 +!
b00000000000101010000000000000000 ,!
b00000000000001010000100000000000 -!
1/!
b00000000000000000000000000001100 1!
#40
0/!
#45
b0010011 '
b00000 )
b01010 *
0+
1,
b00000000000000000000000000000101 /
b00000000000000000000000000000100 r
b01010 t
b010 v
1w
b00000000000000000000000000000001 x
1/!
#50
0/!
#55
b00000 *
0,
b01010 -
1.
b00000000000000000000000000000110 /
b00000000000000000000000000000100 m
b01010 n
1o
b010 p
b00000000000000000000000000000001 q
b00000000000000000000000000000001 |
1/!
b00000000000000000000000000000001 6!
#60
0/!
#65
b00000 -
0.
b00000000000000000000000000000111 /
b00000000000000000000000000000001 0
b00000000000000000000000000000001 G
0R
1/!
b00000000000000000000000000000001 3!
b00000000000000000000000000010000 7!
#70
0/!
#75
b01100 )
1+
b00000000000000000000000000001000 /
b00000000000110001000100000010011 1
b00000000000000000000000000001100 S
b00000000000101111000011100010011 T
b01110 V
b01111 Y
b01100 a
b00000000000000000000000000001000 c
b00000000000000000000000000000001 i
b00000000000000000000000000000010 k
b00000000000000000000000000000010 }
b00000000000000000000000000000000 ~
b00000000000000000000000000000000 !!
b00000000000000000000000000000001 #!
b00000000000000000000000000000010 %!
b00000000000000000000000000000000 '!
b00000000000000000000000000000000 (!
b00000000000000000000000000001110 *!
b00000000000000000000000000001110 +!
b00000000000101111000000000000000 ,!
b00000000000001111000100000000000 -!
1/!
b00000000000000000000000000010000 1!
b00000000000000000000000000000000 3!
b00000000000000000000000000010100 7!
#80
0/!
#85
b01110 )
b01100 *
1,
b00000000000000000000000000001001 /
b00000000101001100010000000100011 1
b00000000000000000000000000010000 S
b00000000000110001000100000010011 T
b10000 V
b10001 Y
b01110 a
b00000000000000000000000000001100 c
b00000000000000000000000000000000 i
b00000000000000000000000000000001 k
b00000000000000000000000000001000 r
b01100 t
b00000000000000000000000000000010 x
b00000000000000000000000000000001 }
b11111111111111111111111111111111 ~
b00000000000000000000000000000001 !!
b00000000000000000000000000000000 #!
b00000000000000000000000000000000 %!
b00000000000000000000000000000001 '!
b00000000000000000000000000000001 (!
b00000000000000000000000000010000 *!
b00000000000000000000000000010000 +!
b00000000000110001000000000000000 ,!
b00000000000010001000100000000000 -!
1/!
b00000000000000000000000000010100 1!
b00000000000000000000000000011000 7!
#90
0/!
#95
b10000 )
b01110 *
b01100 -
1.
b00000000000000000000000000001010 /
b00000000000001100010100000000011 1
1R
b00000000000000000000000000010100 S
b00000000101001100010000000100011 T
b0100011 U
b00000 V
b010 W
b01100 Y
b01010 Z
b00000000000000000000000000000000 [
1\
0_
b000 `
b10000 a
b00000000000000000000000000010000 c
b00000000000000000000000000001000 m
b01100 n
b00000000000000000000000000000010 q
b00000000000000000000000000001100 r
b01110 t
b00000000000000000000000000000001 x
b00000000000000000000000000000010 |
b00000000000000000000000000001010 )!
b00000000000000000000000000000000 *!
b00000000000000000000000000000000 +!
b00000000101001100010000000000000 ,!
b00000000000001100010000000001010 -!
1/!
b00000000000000000000000000011000 1!
b00000000000000000000000000000001 4!
b00000000000000000000000000000010 6!
#100
0/!
#105
b00000 )
b10000 *
0+
b01110 -
b00000000000000000000000000001011 /
b00000000000000000000000000000010 E
0R
b00000000000000000000000000001100 m
b01110 n
b00000000000000000000000000000001 q
b00000000000000000000000000010000 r
b10000 t
b00000000000000000000000000000001 |
1/!
b00000000000000000000000000000010 3!
b00000000000000000000000000000001 6!
b00000000000000000000000000011100 7!
#110
0/!
#115
b0100011 "
b010 #
b00000 *
0,
b10000 -
b00000000000000000000000000001100 /
b00000000000000000000000000000000 1
b00000000000000000000000000000001 C
b00000000000000000000000000011000 S
b00000000000001100010100000000011 T
b0000011 U
b10000 V
b00000 Z
0\
1^
1_
b001 `
b00000 a
b00000000000000000000000000000000 b
b00000000000000000000000000010100 c
1d
0f
b000 g
b00000000000000000000000000000010 i
b00000000000000000000000000000001 j
b00000000000000000000000000000010 k
b00000000000000000000000000000000 l
b00000000000000000000000000010000 m
b10000 n
b00000000000000000000000000000010 }
b00000000000000000000000000000010 ~
b00000000000000000000000000000010 !!
b00000000000000000000000000000010 "!
b00000000000000000000000000000010 $!
b00000000000000000000000000000010 %!
b00000000000000000000000000000010 &!
b00000000000000000000000000000000 '!
b00000000000000000000000000000000 (!
b00000000000000000000000000000000 )!
b00000000000000000000000000010000 *!
b00000000000000000000000000010000 +!
b00000000000001100010000000000000 ,!
b00000000000001100010000000000000 -!
1/!
b00000000000000000000000000011100 1!
b00000000000000000000000000000000 4!
b00000000000000000000000000100000 7!
#120
0/!
#125
b0000011 "
1%
b0100011 '
b010 (
b10000 )
1+
b00000 -
0.
b00000000000000000000000000001101 /
b00000000000000000000000000000001 A
b00000000000000000000000000011100 S
b00000000000000000000000000000000 T
b0000000 U
b00000 V
b000 W
b00000 Y
0]
0^
0_
b000 `
b10000 a
b00000000000000000000000000011000 c
0d
1f
b001 g
b00000000000000000000000000000000 j
b00000000000000000000000000010100 r
b00000000000000000000000000000001 s
b00000 t
1u
b000 v
0w
b00000000000000000000000000000010 x
b11111111111111111111111111111111 y
b00000000000000000000000000000000 *!
b00000000000000000000000000000000 +!
b00000000000000000000000000000000 ,!
b00000000000000000000000000000000 -!
1/!
b00000000000000000000000000100000 1!
b00000000000000000000000000000000 3!
b00000000000000000000000000100100 7!
#130
0/!
#135
b0000000 "
b000 #
0%
1&
b0000011 '
b00000 )
b10000 *
0+
1,
b00000000000000000000000000001110 /
b00000000000000000000000000100000 S
b00000 a
b00000000000000000000000000011100 c
0e
0f
b000 g
b00000000000000000000000000000000 i
b00000000000000000000000000000000 k
b00000000000000000000000000010100 m
b00000 n
0o
b000 p
b00000000000000000000000000000010 q
b00000000000000000000000000011000 r
b00000000000000000000000000000000 s
b10000 t
0u
b001 v
1w
b00000000000000000000000000000010 |
b00000000000000000000000000000000 }
b00000000000000000000000000000000 ~
b00000000000000000000000000000000 !!
b00000000000000000000000000000000 "!
b00000000000000000000000000000000 $!
b00000000000000000000000000000000 %!
b00000000000000000000000000000000 &!
1/!
b00000000000000000000000000100100 1!
b00000000000000000000000000000001 5!
b00000000000000000000000000000010 6!
b00000000000000000000000000101000 7!
#140
0/!
#145
0&
b0000000 '
b000 (
b00000 *
0,
b10000 -
1.
b00000000000000000000000000001111 /
b00000000000000000000000000100100 S
b00000000000000000000000000100000 c
b00000000000000000000000000011000 m
b10000 n
1o
b001 p
b00000000000000000000000000011100 r
b00000 t
b000 v
0w
b00000000000000000000000000000000 x
b00000000000000000000000011111111 y
b00000000000000000000000000000001 {
b00000000000000000000000000000001 |
1/!
b00000000000000000000000000101000 1!
b00000000000000000000000000101100 7!
#150
0/!
#155
b00000 -
0.
b00000000000000000000000000010000 /
b00000000000000000000000000101000 S
b00000000000000000000000000100100 c
b00000000000000000000000000011100 m
b00000 n
0o
b000 p
b00000000000000000000000000000000 q
b00000000000000000000000000100000 r
b00000000000000000000000000000000 |
1/!
b00000000000000000000000000101100 1!
b00000000000000000000000000000000 6!
b00000000000000000000000000110000 7!
#160
0/!
#165
b00000000000000000000000000010001 /
b00000000000000000000000000101100 S
b00000000000000000000000000101000 c
b00000000000000000000000000100000 m
b00000000000000000000000000100100 r
1/!
b00000000000000000000000000110000 1!
b00000000000000000000000000110100 7!
#170
0/!
#175
b00000000000000000000000000010010 /
b00000000000000000000000000110000 S
b00000000000000000000000000101100 c
b00000000000000000000000000100100 m
b00000000000000000000000000101000 r
1/!
b00000000000000000000000000110100 1!
b00000000000000000000000000111000 7!
#180
0/!
#185
b00000000000000000000000000010011 /
b00000000000000000000000000110100 S
b00000000000000000000000000110000 c
b00000000000000000000000000101000 m
b00000000000000000000000000101100 r
1/!
b00000000000000000000000000111000 1!
b00000000000000000000000000111100 7!
#190
0/!
#195
b00000000000000000000000000010100 /
b00000000000000000000000000111000 S
b00000000000000000000000000110100 c
b00000000000000000000000000101100 m
b00000000000000000000000000110000 r
1/!
b00000000000000000000000000111100 1!
b00000000000000000000000001000000 7!
#200
0/!
#205
b00000000000000000000000000010101 /
b00000000000000000000000000111100 S
b00000000000000000000000000111000 c
b00000000000000000000000000110000 m
b00000000000000000000000000110100 r
1/!
b00000000000000000000000001000000 1!
b00000000000000000000000001000100 7!
#210
0/!
#215
b00000000000000000000000000010110 /
b00000000000000000000000001000000 S
b00000000000000000000000000111100 c
b00000000000000000000000000110100 m
b00000000000000000000000000111000 r
1/!
b00000000000000000000000001000100 1!
b00000000000000000000000001001000 7!
#220
0/!
#225
b00000000000000000000000000010111 /
b00000000000000000000000001000100 S
b00000000000000000000000001000000 c
b00000000000000000000000000111000 m
b00000000000000000000000000111100 r
1/!
b00000000000000000000000001001000 1!
b00000000000000000000000001001100 7!
