waves.vcd
$version Generated by VerilatedVcd $end
$timescale 1ps $end
 $scope module tb_core $end
  $var wire 1 $! clk $end
  $var wire 1 %! rst_n $end
  $var wire 32 &! i [31:0] $end
  $var wire 32 ` y [31:0] $end
  $scope module core $end
   $var wire 1 $! clk $end
   $var wire 1 %! rst_n $end
   $var wire 32 '! pc_if [31:0] $end
   $var wire 32 a instr_if [31:0] $end
   $var wire 1 (! imem_en $end
   $var wire 1 )! stall $end
   $var wire 32 " pc_id [31:0] $end
   $var wire 32 # instr_id [31:0] $end
   $var wire 7 $ opcode_id [6:0] $end
   $var wire 5 % rd_id [4:0] $end
   $var wire 3 & funct3_id [2:0] $end
   $var wire 7 ' funct7_id [6:0] $end
   $var wire 5 ( rs1_id [4:0] $end
   $var wire 5 ) rs2_id [4:0] $end
   $var wire 32 * imm_id [31:0] $end
   $var wire 1 + mem_w_id $end
   $var wire 1 , rs2_sel_id $end
   $var wire 1 - rs1_sel_id $end
   $var wire 1 . reg_write_id $end
   $var wire 3 / wb_sel_id [2:0] $end
   $var wire 32 *! rs1_data_id [31:0] $end
   $var wire 32 +! rs2_data_id [31:0] $end
   $var wire 7 0 opcode_ex [6:0] $end
   $var wire 5 1 rd_ex [4:0] $end
   $var wire 3 2 funct3_ex [2:0] $end
   $var wire 7 3 funct7_ex [6:0] $end
   $var wire 32 4 imm_ex [31:0] $end
   $var wire 32 5 pc_ex [31:0] $end
   $var wire 1 6 mem_w_ex $end
   $var wire 1 7 rs2_sel_ex $end
   $var wire 1 8 rs1_sel_ex $end
   $var wire 1 9 reg_write_ex $end
   $var wire 3 : wb_sel_ex [2:0] $end
   $var wire 4 ; alu_op_ex [3:0] $end
   $var wire 32 < rs1_data_ex [31:0] $end
   $var wire 32 = rs2_data_ex [31:0] $end
   $var wire 32 > alu_result_ex [31:0] $end
   $var wire 32 < alu_operand_a_ex [31:0] $end
   $var wire 32 ? alu_operand_b_ex [31:0] $end
   $var wire 32 @ pc_wb [31:0] $end
   $var wire 5 A rd_wb [4:0] $end
   $var wire 1 B mem_w_wb $end
   $var wire 1 C reg_write_wb $end
   $var wire 3 D wb_sel_wb [2:0] $end
   $var wire 32 E alu_result_wb [31:0] $end
   $var wire 32 F pc_mem [31:0] $end
   $var wire 5 G rd_mem [4:0] $end
   $var wire 1 H mem_w_mem $end
   $var wire 3 I wb_sel_mem [2:0] $end
   $var wire 1 J reg_write_mem $end
   $var wire 32 K alu_result_mem [31:0] $end
   $var wire 32 ,! r_data_mem [31:0] $end
   $var wire 32 .! w_data_mem [31:0] $end
   $scope module alu $end
    $var wire 4 ; operator [3:0] $end
    $var wire 32 < operand_a [31:0] $end
    $var wire 32 ? operand_b [31:0] $end
    $var wire 32 > result [31:0] $end
    $var wire 32 L add_output [31:0] $end
    $var wire 32 M sub_output [31:0] $end
    $var wire 32 N xor_output [31:0] $end
    $var wire 32 O or_output [31:0] $end
    $var wire 32 P and_output [31:0] $end
    $var wire 32 Q sra_output [31:0] $end
    $var wire 32 R sll_output [31:0] $end
    $var wire 32 S srl_output [31:0] $end
    $var wire 32 T slt_output [31:0] $end
    $var wire 32 U sltu_output [31:0] $end
   $upscope $end
   $scope module alu_controller $end
    $var wire 7 0 opcode [6:0] $end
    $var wire 3 2 funct3 [2:0] $end
    $var wire 7 3 funct7 [6:0] $end
    $var wire 4 ; alu_op [3:0] $end
   $upscope $end
   $scope module control_unit $end
    $var wire 32 # instr [31:0] $end
    $var wire 1 + mem_w $end
    $var wire 1 , rs2_sel $end
    $var wire 1 - rs1_sel $end
    $var wire 1 . reg_write $end
    $var wire 3 / wb_sel [2:0] $end
    $var wire 7 $ opcode [6:0] $end
   $upscope $end
   $scope module decoder $end
    $var wire 32 # instr [31:0] $end
    $var wire 7 $ opcode [6:0] $end
    $var wire 5 % rd [4:0] $end
    $var wire 3 & funct3 [2:0] $end
    $var wire 7 ' funct7 [6:0] $end
    $var wire 5 ( rs1 [4:0] $end
    $var wire 5 ) rs2 [4:0] $end
    $var wire 32 * imm [31:0] $end
    $var wire 32 V imm_I [31:0] $end
    $var wire 32 W imm_S [31:0] $end
    $var wire 32 X imm_B [31:0] $end
    $var wire 32 Y imm_U [31:0] $end
    $var wire 32 Z imm_J [31:0] $end
   $upscope $end
   $scope module dmem $end
    $var wire 32 /! DEPTH [31:0] $end
    $var wire 1 $! clk $end
    $var wire 1 H write_en $end
    $var wire 32 > addr [31:0] $end
    $var wire 32 .! w_data [31:0] $end
    $var wire 32 ,! r_data [31:0] $end
   $upscope $end
   $scope module ex_mem_reg $end
    $var wire 1 $! clk $end
    $var wire 1 %! rst_n $end
    $var wire 1 )! stall $end
    $var wire 5 1 rd_ex [4:0] $end
    $var wire 32 5 pc_ex [31:0] $end
    $var wire 1 6 mem_w_ex $end
    $var wire 1 9 reg_write_ex $end
    $var wire 3 : wb_sel_ex [2:0] $end
    $var wire 32 > alu_result_ex [31:0] $end
    $var wire 5 G rd_mem [4:0] $end
    $var wire 32 F pc_mem [31:0] $end
    $var wire 1 H mem_w_mem $end
    $var wire 1 J reg_write_mem $end
    $var wire 3 I wb_sel_mem [2:0] $end
    $var wire 32 K alu_result_mem [31:0] $end
   $upscope $end
   $scope module hazard_unit $end
    $var wire 1 $! clk $end
    $var wire 1 %! rst_n $end
    $var wire 1 . reg_write $end
    $var wire 5 % reg_addr [4:0] $end
    $var wire 5 ( src1 [4:0] $end
    $var wire 5 ) src2 [4:0] $end
    $var wire 1 )! stall_q $end
    $var wire 5 [ reg_addr_ex [4:0] $end
    $var wire 5 \ reg_addr_mem [4:0] $end
    $var wire 5 ] reg_addr_wb [4:0] $end
    $var wire 1 ^ detect $end
    $var wire 1 _ toggle $end
   $upscope $end
   $scope module id_ex_reg $end
    $var wire 1 $! clk $end
    $var wire 1 %! rst_n $end
    $var wire 1 )! stall $end
    $var wire 32 " pc_id [31:0] $end
    $var wire 7 $ opcode_id [6:0] $end
    $var wire 5 % rd_id [4:0] $end
    $var wire 3 & funct3_id [2:0] $end
    $var wire 7 ' funct7_id [6:0] $end
    $var wire 32 *! rs1_data_id [31:0] $end
    $var wire 32 +! rs2_data_id [31:0] $end
    $var wire 32 * imm_id [31:0] $end
    $var wire 1 + mem_w_id $end
    $var wire 1 , rs2_sel_id $end
    $var wire 1 - rs1_sel_id $end
    $var wire 1 . reg_write_id $end
    $var wire 3 / wb_sel_id [2:0] $end
    $var wire 7 0 opcode_ex [6:0] $end
    $var wire 5 1 rd_ex [4:0] $end
    $var wire 3 2 funct3_ex [2:0] $end
    $var wire 7 3 funct7_ex [6:0] $end
    $var wire 32 < rs1_data_ex [31:0] $end
    $var wire 32 = rs2_data_ex [31:0] $end
    $var wire 32 4 imm_ex [31:0] $end
    $var wire 32 5 pc_ex [31:0] $end
    $var wire 1 6 mem_w_ex $end
    $var wire 1 7 rs2_sel_ex $end
    $var wire 1 8 rs1_sel_ex $end
    $var wire 1 9 reg_write_ex $end
    $var wire 3 : wb_sel_ex [2:0] $end
   $upscope $end
   $scope module if_id_reg $end
    $var wire 1 $! clk $end
    $var wire 1 %! rst_n $end
    $var wire 1 )! stall $end
    $var wire 32 '! pc_if [31:0] $end
    $var wire 32 a instr_if [31:0] $end
    $var wire 32 " pc_id [31:0] $end
    $var wire 32 # instr_id [31:0] $end
   $upscope $end
   $scope module imem $end
    $var wire 32 /! DEPTH [31:0] $end
    $var wire 1 $! clk $end
    $var wire 1 (! en $end
    $var wire 32 '! addr [31:0] $end
    $var wire 1 )! stall $end
    $var wire 32 a instr [31:0] $end
   $upscope $end
   $scope module mem_wb_reg $end
    $var wire 1 $! clk $end
    $var wire 1 %! rst_n $end
    $var wire 1 )! stall $end
    $var wire 5 G rd_mem [4:0] $end
    $var wire 32 F pc_mem [31:0] $end
    $var wire 1 H mem_w_mem $end
    $var wire 1 J reg_write_mem $end
    $var wire 3 I wb_sel_mem [2:0] $end
    $var wire 32 K alu_result_mem [31:0] $end
    $var wire 5 A rd_wb [4:0] $end
    $var wire 32 @ pc_wb [31:0] $end
    $var wire 1 B mem_w_wb $end
    $var wire 1 C reg_write_wb $end
    $var wire 3 D wb_sel_wb [2:0] $end
    $var wire 32 E alu_result_wb [31:0] $end
   $upscope $end
   $scope module pc $end
    $var wire 1 $! clk $end
    $var wire 1 %! rst_n $end
    $var wire 1 (! imem_en $end
    $var wire 1 )! stall $end
    $var wire 32 -! pc_d [31:0] $end
    $var wire 32 '! pc_q [31:0] $end
   $upscope $end
   $scope module regfile $end
    $var wire 1 $! clk $end
    $var wire 5 A w_addr [4:0] $end
    $var wire 32 E w_data [31:0] $end
    $var wire 1 C w_en $end
    $var wire 5 ( r_addr1 [4:0] $end
    $var wire 32 *! r_data1 [31:0] $end
    $var wire 5 ) r_addr2 [4:0] $end
    $var wire 32 +! r_data2 [31:0] $end
    $var wire 32 b regs[31] [31:0] $end
    $var wire 32 c regs[30] [31:0] $end
    $var wire 32 d regs[29] [31:0] $end
    $var wire 32 e regs[28] [31:0] $end
    $var wire 32 f regs[27] [31:0] $end
    $var wire 32 g regs[26] [31:0] $end
    $var wire 32 h regs[25] [31:0] $end
    $var wire 32 i regs[24] [31:0] $end
    $var wire 32 j regs[23] [31:0] $end
    $var wire 32 k regs[22] [31:0] $end
    $var wire 32 l regs[21] [31:0] $end
    $var wire 32 m regs[20] [31:0] $end
    $var wire 32 n regs[19] [31:0] $end
    $var wire 32 o regs[18] [31:0] $end
    $var wire 32 p regs[17] [31:0] $end
    $var wire 32 q regs[16] [31:0] $end
    $var wire 32 r regs[15] [31:0] $end
    $var wire 32 s regs[14] [31:0] $end
    $var wire 32 t regs[13] [31:0] $end
    $var wire 32 u regs[12] [31:0] $end
    $var wire 32 v regs[11] [31:0] $end
    $var wire 32 w regs[10] [31:0] $end
    $var wire 32 x regs[9] [31:0] $end
    $var wire 32 y regs[8] [31:0] $end
    $var wire 32 z regs[7] [31:0] $end
    $var wire 32 { regs[6] [31:0] $end
    $var wire 32 | regs[5] [31:0] $end
    $var wire 32 } regs[4] [31:0] $end
    $var wire 32 ~ regs[3] [31:0] $end
    $var wire 32 !! regs[2] [31:0] $end
    $var wire 32 "! regs[1] [31:0] $end
    $var wire 32 #! regs[0] [31:0] $end
   $upscope $end
  $upscope $end
 $upscope $end
$enddefinitions $end


#0
b00000000000000000000000000000000 "
b00000000000000000000000000000000 #
b0000000 $
b00000 %
b000 &
b0000000 '
b00000 (
b00000 )
b00000000000000000000000000000000 *
0+
0,
0-
0.
b000 /
b0000000 0
b00000 1
b000 2
b0000000 3
b00000000000000000000000000000000 4
b00000000000000000000000000000000 5
06
07
08
09
b000 :
b0000 ;
b00000000000000000000000000000000 <
b00000000000000000000000000000000 =
b00000000000000000000000000000000 >
b00000000000000000000000000000000 ?
b00000000000000000000000000000000 @
b00000 A
0B
0C
b000 D
b00000000000000000000000000000000 E
b00000000000000000000000000000000 F
b00000 G
0H
b000 I
0J
b00000000000000000000000000000000 K
b00000000000000000000000000000000 L
b00000000000000000000000000000000 M
b00000000000000000000000000000000 N
b00000000000000000000000000000000 O
b00000000000000000000000000000000 P
b00000000000000000000000000000000 Q
b00000000000000000000000000000000 R
b00000000000000000000000000000000 S
b00000000000000000000000000000000 T
b00000000000000000000000000000000 U
b00000000000000000000000000000000 V
b00000000000000000000000000000000 W
b00000000000000000000000000000000 X
b00000000000000000000000000000000 Y
b00000000000000000000000000000000 Z
b00000 [
b00000 \
b00000 ]
0^
0_
b00000000000000000000000000000000 `
b00000000000000000000000000000000 a
b00000000000000000000000000000000 b
b00000000000000000000000000000000 c
b00000000000000000000000000000000 d
b00000000000000000000000000000000 e
b00000000000000000000000000000000 f
b00000000000000000000000000000000 g
b00000000000000000000000000000000 h
b00000000000000000000000000000000 i
b00000000000000000000000000000000 j
b00000000000000000000000000000000 k
b00000000000000000000000000000000 l
b00000000000000000000000000000000 m
b00000000000000000000000000000000 n
b00000000000000000000000000000000 o
b00000000000000000000000000000000 p
b00000000000000000000000000000000 q
b00000000000000000000000000000000 r
b00000000000000000000000000000000 s
b00000000000000000000000000000000 t
b00000000000000000000000000000000 u
b00000000000000000000000000000000 v
b00000000000000000000000000000000 w
b00000000000000000000000000000000 x
b00000000000000000000000000000000 y
b00000000000000000000000000000000 z
b00000000000000000000000000000000 {
b00000000000000000000000000000000 |
b00000000000000000000000000000000 }
b00000000000000000000000000000000 ~
b00000000000000000000000000000000 !!
b00000000000000000000000000000000 "!
b00000000000000000000000000000000 #!
0$!
0%!
b00000000000000000000000000000000 &!
b00000000000000000000000000000000 '!
0(!
0)!
b00000000000000000000000000000000 *!
b00000000000000000000000000000000 +!
b00000000000000000000000000000000 ,!
b00000000000000000000000000000100 -!
b00000000000000000000000000000000 .!
b00000000000000000000010000000000 /!
#5
1$!
b00000000000000000000000000000001 &!
1(!
#10
0$!
1%!
#15
b00000000000101011000010100010011 a
1$!
b00000000000000000000000000000010 &!
b00000000000000000000000000000100 '!
b00000000000000000000000000001000 -!
#20
0$!
#25
b00000000000000000000000000000100 "
b00000000000101011000010100010011 #
b0010011 $
b01010 %
b01011 (
b00001 )
b00000000000000000000000000000001 *
1,
1.
b010 /
b00000000000000000000000000000001 V
b00000000000000000000000000001010 W
b00000000000000000000000000001010 X
b00000000000101011000000000000000 Y
b00000000000001011000100000000000 Z
b00000000000101010000011000010011 a
1$!
b00000000000000000000000000000011 &!
b00000000000000000000000000001000 '!
b00000000000000000000000000001100 -!
#30
0$!
#35
b00000000000000000000000000001000 "
b00000000000101010000011000010011 #
b01100 %
b01010 (
b0010011 0
b01010 1
b00000000000000000000000000000001 4
b00000000000000000000000000000100 5
17
19
b010 :
b00000000000000000000000000000001 >
b00000000000000000000000000000001 ?
b00000000000000000000000000000001 L
b11111111111111111111111111111111 M
b00000000000000000000000000000001 N
b00000000000000000000000000000001 O
b00000000000000000000000000000001 T
b00000000000000000000000000000001 U
b00000000000000000000000000001100 W
b00000000000000000000000000001100 X
b00000000000101010000000000000000 Y
b00000000000001010000100000000000 Z
b01010 [
1^
b00000000000101111000011100010011 a
1$!
b00000000000000000000000000000100 &!
b00000000000000000000000000001100 '!
1)!
#40
0$!
#45
b00000000000000000000000000000100 F
b01010 G
b010 I
1J
b00000000000000000000000000000001 K
b01100 [
b01010 \
1_
1$!
b00000000000000000000000000000101 &!
#50
0$!
#55
b00000000000000000000000000000100 @
b01010 A
1C
b010 D
b00000000000000000000000000000001 E
b01100 \
b01010 ]
0^
1$!
b00000000000000000000000000000110 &!
#60
0$!
#65
b01100 ]
0_
b00000000000000000000000000000001 `
b00000000000000000000000000000001 w
1$!
b00000000000000000000000000000111 &!
0)!
b00000000000000000000000000000001 *!
b00000000000000000000000000010000 -!
#70
0$!
#75
b00000000000000000000000000001100 "
b00000000000101111000011100010011 #
b01110 %
b01111 (
b01100 1
b00000000000000000000000000001000 5
b00000000000000000000000000000001 <
b00000000000000000000000000000010 >
b00000000000000000000000000000010 L
b00000000000000000000000000000000 M
b00000000000000000000000000000000 N
b00000000000000000000000000000001 P
b00000000000000000000000000000010 R
b00000000000000000000000000000000 T
b00000000000000000000000000000000 U
b00000000000000000000000000001110 W
b00000000000000000000000000001110 X
b00000000000101111000000000000000 Y
b00000000000001111000100000000000 Z
b00000000000110001000100000010011 a
1$!
b00000000000000000000000000001000 &!
b00000000000000000000000000010000 '!
b00000000000000000000000000000000 *!
b00000000000000000000000000010100 -!
#80
0$!
#85
b00000000000000000000000000010000 "
b00000000000110001000100000010011 #
b10000 %
b10001 (
b01110 1
b00000000000000000000000000001100 5
b00000000000000000000000000000000 <
b00000000000000000000000000000001 >
b00000000000000000000000000001000 F
b01100 G
b00000000000000000000000000000010 K
b00000000000000000000000000000001 L
b11111111111111111111111111111111 M
b00000000000000000000000000000001 N
b00000000000000000000000000000000 P
b00000000000000000000000000000000 R
b00000000000000000000000000000001 T
b00000000000000000000000000000001 U
b00000000000000000000000000010000 W
b00000000000000000000000000010000 X
b00000000000110001000000000000000 Y
b00000000000010001000100000000000 Z
b01110 [
b00000000000000000000000000000000 a
1$!
b00000000000000000000000000001001 &!
b00000000000000000000000000010100 '!
b00000000000000000000000000011000 -!
#90
0$!
#95
b00000000000000000000000000010100 "
b00000000000000000000000000000000 #
b0000000 $
b00000 %
b00000 (
b00000 )
b00000000000000000000000000000000 *
0,
0.
b000 /
b10000 1
b00000000000000000000000000010000 5
b00000000000000000000000000001000 @
b01100 A
b00000000000000000000000000000010 E
b00000000000000000000000000001100 F
b01110 G
b00000000000000000000000000000001 K
b00000000000000000000000000000000 V
b00000000000000000000000000000000 W
b00000000000000000000000000000000 X
b00000000000000000000000000000000 Y
b00000000000000000000000000000000 Z
b10000 [
b01110 \
1$!
b00000000000000000000000000001010 &!
b00000000000000000000000000011000 '!
b00000000000000000000000000011100 -!
#100
0$!
#105
b00000000000000000000000000011000 "
b0000000 0
b00000 1
b00000000000000000000000000000000 4
b00000000000000000000000000010100 5
07
09
b000 :
b00000000000000000000000000000000 >
b00000000000000000000000000000000 ?
b00000000000000000000000000001100 @
b01110 A
b00000000000000000000000000000001 E
b00000000000000000000000000010000 F
b10000 G
b00000000000000000000000000000000 L
b00000000000000000000000000000000 M
b00000000000000000000000000000000 N
b00000000000000000000000000000000 O
b00000000000000000000000000000000 T
b00000000000000000000000000000000 U
b00000 [
b10000 \
b01110 ]
b00000000000000000000000000000010 u
1$!
b00000000000000000000000000001011 &!
b00000000000000000000000000011100 '!
b00000000000000000000000000100000 -!
#110
0$!
#115
b00000000000000000000000000011100 "
b00000000000000000000000000011000 5
b00000000000000000000000000010000 @
b10000 A
b00000000000000000000000000010100 F
b00000 G
b000 I
0J
b00000000000000000000000000000000 K
b00000 \
b10000 ]
b00000000000000000000000000000001 s
1$!
b00000000000000000000000000001100 &!
b00000000000000000000000000100000 '!
b00000000000000000000000000100100 -!
#120
0$!
#125
b00000000000000000000000000100000 "
b00000000000000000000000000011100 5
b00000000000000000000000000010100 @
b00000 A
0C
b000 D
b00000000000000000000000000000000 E
b00000000000000000000000000011000 F
b00000 ]
b00000000000000000000000000000001 q
1$!
b00000000000000000000000000001101 &!
b00000000000000000000000000100100 '!
b00000000000000000000000000101000 -!
#130
0$!
#135
b00000000000000000000000000100100 "
b00000000000000000000000000100000 5
b00000000000000000000000000011000 @
b00000000000000000000000000011100 F
1$!
b00000000000000000000000000001110 &!
b00000000000000000000000000101000 '!
b00000000000000000000000000101100 -!
#140
0$!
#145
b00000000000000000000000000101000 "
b00000000000000000000000000100100 5
b00000000000000000000000000011100 @
b00000000000000000000000000100000 F
1$!
b00000000000000000000000000001111 &!
b00000000000000000000000000101100 '!
b00000000000000000000000000110000 -!
#150
0$!
#155
b00000000000000000000000000101100 "
b00000000000000000000000000101000 5
b00000000000000000000000000100000 @
b00000000000000000000000000100100 F
1$!
b00000000000000000000000000010000 &!
b00000000000000000000000000110000 '!
b00000000000000000000000000110100 -!
#160
0$!
#165
b00000000000000000000000000110000 "
b00000000000000000000000000101100 5
b00000000000000000000000000100100 @
b00000000000000000000000000101000 F
1$!
b00000000000000000000000000010001 &!
b00000000000000000000000000110100 '!
b00000000000000000000000000111000 -!
#170
0$!
#175
b00000000000000000000000000110100 "
b00000000000000000000000000110000 5
b00000000000000000000000000101000 @
b00000000000000000000000000101100 F
1$!
b00000000000000000000000000010010 &!
b00000000000000000000000000111000 '!
b00000000000000000000000000111100 -!
#180
0$!
#185
b00000000000000000000000000111000 "
b00000000000000000000000000110100 5
b00000000000000000000000000101100 @
b00000000000000000000000000110000 F
1$!
b00000000000000000000000000010011 &!
b00000000000000000000000000111100 '!
b00000000000000000000000001000000 -!
#190
0$!
#195
b00000000000000000000000000111100 "
b00000000000000000000000000111000 5
b00000000000000000000000000110000 @
b00000000000000000000000000110100 F
1$!
b00000000000000000000000000010100 &!
b00000000000000000000000001000000 '!
b00000000000000000000000001000100 -!
#200
0$!
#205
b00000000000000000000000001000000 "
b00000000000000000000000000111100 5
b00000000000000000000000000110100 @
b00000000000000000000000000111000 F
1$!
b00000000000000000000000000010101 &!
b00000000000000000000000001000100 '!
b00000000000000000000000001001000 -!
#210
0$!
#215
b00000000000000000000000001000100 "
b00000000000000000000000001000000 5
b00000000000000000000000000111000 @
b00000000000000000000000000111100 F
1$!
b00000000000000000000000000010110 &!
b00000000000000000000000001001000 '!
b00000000000000000000000001001100 -!
#220
0$!
#225
b00000000000000000000000001001000 "
b00000000000000000000000001000100 5
b00000000000000000000000000111100 @
b00000000000000000000000001000000 F
1$!
b00000000000000000000000000010111 &!
b00000000000000000000000001001100 '!
b00000000000000000000000001010000 -!
